[
  {
    "idEstudiante": 1,
    "nombreEstudiante": "test 1",
    "fechaNacimientoEstudiante": "13-01-1997",
    "gradoActualEstudiante": 1,
    "seccionActualEstudiante" : "A",
    "fechaCreacionEstudiante": "01-01-2020",
    "fechaUltimaModificacionEstudiante": "01-01-2020",
    "idUsuarioEstudiante": 2
  },
  {
    "idEstudiante": 2,
    "nombreEstudiante": "test 2",
    "fechaNacimientoEstudiante": "13-01-1997",
    "gradoActualEstudiante": 1,
    "seccionActualEstudiante" : "A",
    "fechaCreacionEstudiante": "01-01-2020",
    "fechaUltimaModificacionEstudiante": "01-01-2020",
    "idUsuarioEstudiante": 2
  },
  {
    "idEstudiante": 3,
    "nombreEstudiante": "test 3",
    "fechaNacimientoEstudiante": "13-01-1997",
    "gradoActualEstudiante": 1,
    "seccionActualEstudiante" : "A",
    "fechaCreacionEstudiante": "01-01-2020",
    "fechaUltimaModificacionEstudiante": "01-01-2020",
    "idUsuarioEstudiante": 2
  }
]