[
  {
    "nombre": "Sección A",
    "fechaProgramada": "29-08-2020",
    "duracionMinutos": "25",
    "grado": "5",
    "seccion": "A"
  },
  {
    "nombre": "Sección B",
    "fechaProgramada": "29-08-2020",
    "duracionMinutos": "25",
    "grado": "5",
    "seccion": "A"
  },
  {
    "nombre": "Sección C",
    "fechaProgramada": "29-08-2020",
    "duracionMinutos": "25",
    "grado": "5",
    "seccion": "A"
  },
  {
    "nombre": "Sección D",
    "fechaProgramada": "29-08-2020",
    "duracionMinutos": "25",
    "grado": "5",
    "seccion": "A"
  },
  {
    "nombre": "Sección E",
    "fechaProgramada": "29-08-2020",
    "duracionMinutos": "25",
    "grado": "5",
    "seccion": "A"
  },
  {
    "nombre": "Sección F",
    "fechaProgramada": "29-08-2020",
    "duracionMinutos": "25",
    "grado": "5",
    "seccion": "A"
  },
  {
    "nombre": "Sección 1",
    "fechaProgramada": "29-08-2020",
    "duracionMinutos": "25",
    "grado": "5",
    "seccion": "A"
  },
  {
    "nombre": "Sección G",
    "fechaProgramada": "29-08-2020",
    "duracionMinutos": "25",
    "grado": "5",
    "seccion": "A"
  },
  {
    "nombre": "Sección H",
    "fechaProgramada": "29-08-2020",
    "duracionMinutos": "25",
    "grado": "5",
    "seccion": "A"
  },
  {
    "nombre": "Sección I",
    "fechaProgramada": "29-08-2020",
    "duracionMinutos": "25",
    "grado": "5",
    "seccion": "A"
  },
  {
    "nombre": "Sección J",
    "fechaProgramada": "29-08-2020",
    "duracionMinutos": "25",
    "grado": "5",
    "seccion": "A"
  },
  {
    "nombre": "Sección K",
    "fechaProgramada": "29-08-2020",
    "duracionMinutos": "25",
    "grado": "5",
    "seccion": "A"
  }
]
