[
  {
    "nombre": "Actividad 1",
    "fechaProgramada": "29-08-2020",
    "duracionMinutos": "25",
    "grado": "5",
    "seccion": "A"
  },
  {
    "nombre": "Actividad 3",
    "fechaProgramada": "29-08-2020",
    "duracionMinutos": "25",
    "grado": "5",
    "seccion": "A"
  },
  {
    "nombre": "Actividad 2",
    "fechaProgramada": "29-08-2020",
    "duracionMinutos": "25",
    "grado": "5",
    "seccion": "A"
  },
  {
    "nombre": "Actividad 1",
    "fechaProgramada": "29-08-2020",
    "duracionMinutos": "25",
    "grado": "5",
    "seccion": "A"
  },
  {
    "nombre": "Actividad 3",
    "fechaProgramada": "29-08-2020",
    "duracionMinutos": "25",
    "grado": "5",
    "seccion": "A"
  },
  {
    "nombre": "Actividad 2",
    "fechaProgramada": "29-08-2020",
    "duracionMinutos": "25",
    "grado": "5",
    "seccion": "A"
  },
  {
    "nombre": "Actividad 1",
    "fechaProgramada": "29-08-2020",
    "duracionMinutos": "25",
    "grado": "5",
    "seccion": "A"
  },
  {
    "nombre": "Actividad 3",
    "fechaProgramada": "29-08-2020",
    "duracionMinutos": "25",
    "grado": "5",
    "seccion": "A"
  },
  {
    "nombre": "Actividad 2",
    "fechaProgramada": "29-08-2020",
    "duracionMinutos": "25",
    "grado": "5",
    "seccion": "A"
  },
  {
    "nombre": "Actividad 1",
    "fechaProgramada": "29-08-2020",
    "duracionMinutos": "25",
    "grado": "5",
    "seccion": "A"
  },
  {
    "nombre": "Actividad 3",
    "fechaProgramada": "29-08-2020",
    "duracionMinutos": "25",
    "grado": "5",
    "seccion": "A"
  },
  {
    "nombre": "Actividad 2",
    "fechaProgramada": "29-08-2020",
    "duracionMinutos": "25",
    "grado": "5",
    "seccion": "A"
  }
]
