<?xml version="1.0" standalone="no"?>
<!DOCTYPE svg PUBLIC "-//W3C//DTD SVG 20010904//EN"
 "http://www.w3.org/TR/2001/REC-SVG-20010904/DTD/svg10.dtd">
<svg version="1.0" xmlns="http://www.w3.org/2000/svg"
 width="192.000000pt" height="192.000000pt" viewBox="0 0 192.000000 192.000000"
 preserveAspectRatio="xMidYMid meet">
<metadata>
Created by potrace 1.16, written by Peter Selinger 2001-2019
</metadata>
<g transform="translate(0.000000,192.000000) scale(0.100000,-0.100000)"
fill="#000000" stroke="none">
<path d="M1267 1330 c-21 -4 -43 -12 -49 -18 -16 -16 -30 -254 -26 -439 3
-143 4 -154 26 -175 19 -19 33 -23 91 -23 66 0 108 16 95 36 -3 5 -1 9 4 9 12
0 17 473 6 539 -10 62 -62 87 -147 71z"/>
<path d="M1260 619 c0 -6 -5 -9 -12 -7 -6 2 -21 -5 -32 -16 -28 -28 -28 -126
0 -158 12 -14 14 -19 4 -13 -12 6 -12 5 -4 -4 15 -16 140 -21 172 -8 25 12 25
9 26 100 1 37 -2 67 -7 67 -4 0 -6 4 -3 9 8 12 -21 34 -34 26 -5 -3 -10 -1
-10 4 0 6 -21 11 -50 11 -29 0 -50 -4 -50 -11z"/>
</g>
</svg>
